^C:\USERS\BRAD\GOOGLE DRIVE\VISUAL STUDIO 2013\PROJECTS\CS3100ASSIGN8\CS3100ASSIGN8\ASJFSIMULATOR.CPP|C:\USERS\BRAD\GOOGLE DRIVE\VISUAL STUDIO 2013\PROJECTS\CS3100ASSIGN8\CS3100ASSIGN8\FIFOSIMULATOR.CPP|C:\USERS\BRAD\GOOGLE DRIVE\VISUAL STUDIO 2013\PROJECTS\CS3100ASSIGN8\CS3100ASSIGN8\MAIN.CPP|C:\USERS\BRAD\GOOGLE DRIVE\VISUAL STUDIO 2013\PROJECTS\CS3100ASSIGN8\CS3100ASSIGN8\PROCESS.CPP|C:\USERS\BRAD\GOOGLE DRIVE\VISUAL STUDIO 2013\PROJECTS\CS3100ASSIGN8\CS3100ASSIGN8\RRSIMULATOR.CPP|C:\USERS\BRAD\GOOGLE DRIVE\VISUAL STUDIO 2013\PROJECTS\CS3100ASSIGN8\CS3100ASSIGN8\SIMULATOR.CPP|C:\USERS\BRAD\GOOGLE DRIVE\VISUAL STUDIO 2013\PROJECTS\CS3100ASSIGN8\CS3100ASSIGN8\SJFSIMULATOR.CPP
C:\USERS\BRAD\GOOGLE DRIVE\VISUAL STUDIO 2013\PROJECTS\CS3100ASSIGN8\CS3100ASSIGN8\DEBUG\VC120.PDB
C:\USERS\BRAD\GOOGLE DRIVE\VISUAL STUDIO 2013\PROJECTS\CS3100ASSIGN8\CS3100ASSIGN8\DEBUG\VC120.IDB
C:\USERS\BRAD\GOOGLE DRIVE\VISUAL STUDIO 2013\PROJECTS\CS3100ASSIGN8\CS3100ASSIGN8\DEBUG\MAIN.OBJ
C:\USERS\BRAD\GOOGLE DRIVE\VISUAL STUDIO 2013\PROJECTS\CS3100ASSIGN8\CS3100ASSIGN8\DEBUG\PROCESS.OBJ
C:\USERS\BRAD\GOOGLE DRIVE\VISUAL STUDIO 2013\PROJECTS\CS3100ASSIGN8\CS3100ASSIGN8\DEBUG\SIMULATOR.OBJ
C:\USERS\BRAD\GOOGLE DRIVE\VISUAL STUDIO 2013\PROJECTS\CS3100ASSIGN8\CS3100ASSIGN8\DEBUG\ASJFSIMULATOR.OBJ
C:\USERS\BRAD\GOOGLE DRIVE\VISUAL STUDIO 2013\PROJECTS\CS3100ASSIGN8\CS3100ASSIGN8\DEBUG\FIFOSIMULATOR.OBJ
C:\USERS\BRAD\GOOGLE DRIVE\VISUAL STUDIO 2013\PROJECTS\CS3100ASSIGN8\CS3100ASSIGN8\DEBUG\RRSIMULATOR.OBJ
C:\USERS\BRAD\GOOGLE DRIVE\VISUAL STUDIO 2013\PROJECTS\CS3100ASSIGN8\CS3100ASSIGN8\DEBUG\SJFSIMULATOR.OBJ
^C:\USERS\BRAD\GOOGLE DRIVE\VISUAL STUDIO 2013\PROJECTS\CS3100ASSIGN8\CS3100ASSIGN8\ASJFSIMULATOR.CPP
C:\USERS\BRAD\GOOGLE DRIVE\VISUAL STUDIO 2013\PROJECTS\CS3100ASSIGN8\CS3100ASSIGN8\DEBUG\VC120.PDB
^C:\USERS\BRAD\GOOGLE DRIVE\VISUAL STUDIO 2013\PROJECTS\CS3100ASSIGN8\CS3100ASSIGN8\FIFOSIMULATOR.CPP
C:\USERS\BRAD\GOOGLE DRIVE\VISUAL STUDIO 2013\PROJECTS\CS3100ASSIGN8\CS3100ASSIGN8\DEBUG\VC120.PDB
C:\USERS\BRAD\GOOGLE DRIVE\VISUAL STUDIO 2013\PROJECTS\CS3100ASSIGN8\CS3100ASSIGN8\DEBUG\VC120.IDB
C:\USERS\BRAD\GOOGLE DRIVE\VISUAL STUDIO 2013\PROJECTS\CS3100ASSIGN8\CS3100ASSIGN8\DEBUG\FIFOSIMULATOR.OBJ
^C:\USERS\BRAD\GOOGLE DRIVE\VISUAL STUDIO 2013\PROJECTS\CS3100ASSIGN8\CS3100ASSIGN8\MAIN.CPP
C:\USERS\BRAD\GOOGLE DRIVE\VISUAL STUDIO 2013\PROJECTS\CS3100ASSIGN8\CS3100ASSIGN8\DEBUG\VC120.PDB
C:\USERS\BRAD\GOOGLE DRIVE\VISUAL STUDIO 2013\PROJECTS\CS3100ASSIGN8\CS3100ASSIGN8\DEBUG\VC120.IDB
C:\USERS\BRAD\GOOGLE DRIVE\VISUAL STUDIO 2013\PROJECTS\CS3100ASSIGN8\CS3100ASSIGN8\DEBUG\MAIN.OBJ
^C:\USERS\BRAD\GOOGLE DRIVE\VISUAL STUDIO 2013\PROJECTS\CS3100ASSIGN8\CS3100ASSIGN8\PROCESS.CPP
C:\USERS\BRAD\GOOGLE DRIVE\VISUAL STUDIO 2013\PROJECTS\CS3100ASSIGN8\CS3100ASSIGN8\DEBUG\VC120.PDB
C:\USERS\BRAD\GOOGLE DRIVE\VISUAL STUDIO 2013\PROJECTS\CS3100ASSIGN8\CS3100ASSIGN8\DEBUG\VC120.IDB
C:\USERS\BRAD\GOOGLE DRIVE\VISUAL STUDIO 2013\PROJECTS\CS3100ASSIGN8\CS3100ASSIGN8\DEBUG\PROCESS.OBJ
^C:\USERS\BRAD\GOOGLE DRIVE\VISUAL STUDIO 2013\PROJECTS\CS3100ASSIGN8\CS3100ASSIGN8\RRSIMULATOR.CPP
C:\USERS\BRAD\GOOGLE DRIVE\VISUAL STUDIO 2013\PROJECTS\CS3100ASSIGN8\CS3100ASSIGN8\DEBUG\VC120.PDB
^C:\USERS\BRAD\GOOGLE DRIVE\VISUAL STUDIO 2013\PROJECTS\CS3100ASSIGN8\CS3100ASSIGN8\SIMULATOR.CPP
C:\USERS\BRAD\GOOGLE DRIVE\VISUAL STUDIO 2013\PROJECTS\CS3100ASSIGN8\CS3100ASSIGN8\DEBUG\VC120.PDB
C:\USERS\BRAD\GOOGLE DRIVE\VISUAL STUDIO 2013\PROJECTS\CS3100ASSIGN8\CS3100ASSIGN8\DEBUG\VC120.IDB
C:\USERS\BRAD\GOOGLE DRIVE\VISUAL STUDIO 2013\PROJECTS\CS3100ASSIGN8\CS3100ASSIGN8\DEBUG\SIMULATOR.OBJ
^C:\USERS\BRAD\GOOGLE DRIVE\VISUAL STUDIO 2013\PROJECTS\CS3100ASSIGN8\CS3100ASSIGN8\SJFSIMULATOR.CPP
C:\USERS\BRAD\GOOGLE DRIVE\VISUAL STUDIO 2013\PROJECTS\CS3100ASSIGN8\CS3100ASSIGN8\DEBUG\VC120.PDB
^C:\USERS\BRAD\GOOGLE DRIVE\VISUAL STUDIO 2013\PROJECTS\CS3100ASSIGN8\CS3100ASSIGN8\ASJFSIMULATOR.CPP|C:\USERS\BRAD\GOOGLE DRIVE\VISUAL STUDIO 2013\PROJECTS\CS3100ASSIGN8\CS3100ASSIGN8\FIFOSIMULATOR.CPP|C:\USERS\BRAD\GOOGLE DRIVE\VISUAL STUDIO 2013\PROJECTS\CS3100ASSIGN8\CS3100ASSIGN8\RRSIMULATOR.CPP|C:\USERS\BRAD\GOOGLE DRIVE\VISUAL STUDIO 2013\PROJECTS\CS3100ASSIGN8\CS3100ASSIGN8\SJFSIMULATOR.CPP
C:\USERS\BRAD\GOOGLE DRIVE\VISUAL STUDIO 2013\PROJECTS\CS3100ASSIGN8\CS3100ASSIGN8\DEBUG\VC120.PDB
C:\USERS\BRAD\GOOGLE DRIVE\VISUAL STUDIO 2013\PROJECTS\CS3100ASSIGN8\CS3100ASSIGN8\DEBUG\VC120.IDB
C:\USERS\BRAD\GOOGLE DRIVE\VISUAL STUDIO 2013\PROJECTS\CS3100ASSIGN8\CS3100ASSIGN8\DEBUG\ASJFSIMULATOR.OBJ
C:\USERS\BRAD\GOOGLE DRIVE\VISUAL STUDIO 2013\PROJECTS\CS3100ASSIGN8\CS3100ASSIGN8\DEBUG\RRSIMULATOR.OBJ
C:\USERS\BRAD\GOOGLE DRIVE\VISUAL STUDIO 2013\PROJECTS\CS3100ASSIGN8\CS3100ASSIGN8\DEBUG\SJFSIMULATOR.OBJ
^C:\USERS\BRAD\GOOGLE DRIVE\VISUAL STUDIO 2013\PROJECTS\CS3100ASSIGN8\CS3100ASSIGN8\ASJFSIMULATOR.CPP|C:\USERS\BRAD\GOOGLE DRIVE\VISUAL STUDIO 2013\PROJECTS\CS3100ASSIGN8\CS3100ASSIGN8\FIFOSIMULATOR.CPP|C:\USERS\BRAD\GOOGLE DRIVE\VISUAL STUDIO 2013\PROJECTS\CS3100ASSIGN8\CS3100ASSIGN8\MAIN.CPP|C:\USERS\BRAD\GOOGLE DRIVE\VISUAL STUDIO 2013\PROJECTS\CS3100ASSIGN8\CS3100ASSIGN8\RRSIMULATOR.CPP|C:\USERS\BRAD\GOOGLE DRIVE\VISUAL STUDIO 2013\PROJECTS\CS3100ASSIGN8\CS3100ASSIGN8\SIMULATOR.CPP|C:\USERS\BRAD\GOOGLE DRIVE\VISUAL STUDIO 2013\PROJECTS\CS3100ASSIGN8\CS3100ASSIGN8\SJFSIMULATOR.CPP
C:\USERS\BRAD\GOOGLE DRIVE\VISUAL STUDIO 2013\PROJECTS\CS3100ASSIGN8\CS3100ASSIGN8\DEBUG\VC120.PDB
C:\USERS\BRAD\GOOGLE DRIVE\VISUAL STUDIO 2013\PROJECTS\CS3100ASSIGN8\CS3100ASSIGN8\DEBUG\VC120.IDB
C:\USERS\BRAD\GOOGLE DRIVE\VISUAL STUDIO 2013\PROJECTS\CS3100ASSIGN8\CS3100ASSIGN8\DEBUG\ASJFSIMULATOR.OBJ
C:\USERS\BRAD\GOOGLE DRIVE\VISUAL STUDIO 2013\PROJECTS\CS3100ASSIGN8\CS3100ASSIGN8\DEBUG\FIFOSIMULATOR.OBJ
C:\USERS\BRAD\GOOGLE DRIVE\VISUAL STUDIO 2013\PROJECTS\CS3100ASSIGN8\CS3100ASSIGN8\DEBUG\RRSIMULATOR.OBJ
C:\USERS\BRAD\GOOGLE DRIVE\VISUAL STUDIO 2013\PROJECTS\CS3100ASSIGN8\CS3100ASSIGN8\DEBUG\SJFSIMULATOR.OBJ
C:\USERS\BRAD\GOOGLE DRIVE\VISUAL STUDIO 2013\PROJECTS\CS3100ASSIGN8\CS3100ASSIGN8\DEBUG\SIMULATOR.OBJ
C:\USERS\BRAD\GOOGLE DRIVE\VISUAL STUDIO 2013\PROJECTS\CS3100ASSIGN8\CS3100ASSIGN8\DEBUG\MAIN.OBJ
^C:\USERS\BRAD\GOOGLE DRIVE\VISUAL STUDIO 2013\PROJECTS\CS3100ASSIGN8\CS3100ASSIGN8\MAIN.CPP|C:\USERS\BRAD\GOOGLE DRIVE\VISUAL STUDIO 2013\PROJECTS\CS3100ASSIGN8\CS3100ASSIGN8\SIMULATOR.CPP
C:\USERS\BRAD\GOOGLE DRIVE\VISUAL STUDIO 2013\PROJECTS\CS3100ASSIGN8\CS3100ASSIGN8\DEBUG\VC120.PDB
C:\USERS\BRAD\GOOGLE DRIVE\VISUAL STUDIO 2013\PROJECTS\CS3100ASSIGN8\CS3100ASSIGN8\DEBUG\VC120.IDB
C:\USERS\BRAD\GOOGLE DRIVE\VISUAL STUDIO 2013\PROJECTS\CS3100ASSIGN8\CS3100ASSIGN8\DEBUG\SIMULATOR.OBJ
C:\USERS\BRAD\GOOGLE DRIVE\VISUAL STUDIO 2013\PROJECTS\CS3100ASSIGN8\CS3100ASSIGN8\DEBUG\MAIN.OBJ
