^C:\USERS\BRAD\GOOGLE DRIVE\VISUAL STUDIO 2013\PROJECTS\CS3100ASSIGN8\CS3100ASSIGN8\ASJFSIMULATOR.CPP
/c /Zi /nologo /W3 /WX- /sdl /O2 /Oi /Oy- /GL /D WIN32 /D NDEBUG /D _CONSOLE /D _LIB /D _UNICODE /D UNICODE /Gm- /EHsc /MD /GS /Gy /fp:precise /Zc:wchar_t /Zc:forScope /Fo"RELEASE\\" /Fd"RELEASE\VC120.PDB" /Gd /TP /analyze- C:\USERS\BRAD\GOOGLE DRIVE\VISUAL STUDIO 2013\PROJECTS\CS3100ASSIGN8\CS3100ASSIGN8\ASJFSIMULATOR.CPP
^C:\USERS\BRAD\GOOGLE DRIVE\VISUAL STUDIO 2013\PROJECTS\CS3100ASSIGN8\CS3100ASSIGN8\FIFOSIMULATOR.CPP
/c /Zi /nologo /W3 /WX- /sdl /O2 /Oi /Oy- /GL /D WIN32 /D NDEBUG /D _CONSOLE /D _LIB /D _UNICODE /D UNICODE /Gm- /EHsc /MD /GS /Gy /fp:precise /Zc:wchar_t /Zc:forScope /Fo"RELEASE\\" /Fd"RELEASE\VC120.PDB" /Gd /TP /analyze- C:\USERS\BRAD\GOOGLE DRIVE\VISUAL STUDIO 2013\PROJECTS\CS3100ASSIGN8\CS3100ASSIGN8\FIFOSIMULATOR.CPP
^C:\USERS\BRAD\GOOGLE DRIVE\VISUAL STUDIO 2013\PROJECTS\CS3100ASSIGN8\CS3100ASSIGN8\RRSIMULATOR.CPP
/c /Zi /nologo /W3 /WX- /sdl /O2 /Oi /Oy- /GL /D WIN32 /D NDEBUG /D _CONSOLE /D _LIB /D _UNICODE /D UNICODE /Gm- /EHsc /MD /GS /Gy /fp:precise /Zc:wchar_t /Zc:forScope /Fo"RELEASE\\" /Fd"RELEASE\VC120.PDB" /Gd /TP /analyze- C:\USERS\BRAD\GOOGLE DRIVE\VISUAL STUDIO 2013\PROJECTS\CS3100ASSIGN8\CS3100ASSIGN8\RRSIMULATOR.CPP
^C:\USERS\BRAD\GOOGLE DRIVE\VISUAL STUDIO 2013\PROJECTS\CS3100ASSIGN8\CS3100ASSIGN8\SJFSIMULATOR.CPP
/c /Zi /nologo /W3 /WX- /sdl /O2 /Oi /Oy- /GL /D WIN32 /D NDEBUG /D _CONSOLE /D _LIB /D _UNICODE /D UNICODE /Gm- /EHsc /MD /GS /Gy /fp:precise /Zc:wchar_t /Zc:forScope /Fo"RELEASE\\" /Fd"RELEASE\VC120.PDB" /Gd /TP /analyze- C:\USERS\BRAD\GOOGLE DRIVE\VISUAL STUDIO 2013\PROJECTS\CS3100ASSIGN8\CS3100ASSIGN8\SJFSIMULATOR.CPP
^C:\USERS\BRAD\GOOGLE DRIVE\VISUAL STUDIO 2013\PROJECTS\CS3100ASSIGN8\CS3100ASSIGN8\SIMULATOR.CPP
/c /Zi /nologo /W3 /WX- /sdl /O2 /Oi /Oy- /GL /D WIN32 /D NDEBUG /D _CONSOLE /D _LIB /D _UNICODE /D UNICODE /Gm- /EHsc /MD /GS /Gy /fp:precise /Zc:wchar_t /Zc:forScope /Fo"RELEASE\\" /Fd"RELEASE\VC120.PDB" /Gd /TP /analyze- C:\USERS\BRAD\GOOGLE DRIVE\VISUAL STUDIO 2013\PROJECTS\CS3100ASSIGN8\CS3100ASSIGN8\SIMULATOR.CPP
^C:\USERS\BRAD\GOOGLE DRIVE\VISUAL STUDIO 2013\PROJECTS\CS3100ASSIGN8\CS3100ASSIGN8\MAIN.CPP
/c /Zi /nologo /W3 /WX- /sdl /O2 /Oi /Oy- /GL /D WIN32 /D NDEBUG /D _CONSOLE /D _LIB /D _UNICODE /D UNICODE /Gm- /EHsc /MD /GS /Gy /fp:precise /Zc:wchar_t /Zc:forScope /Fo"RELEASE\\" /Fd"RELEASE\VC120.PDB" /Gd /TP /analyze- C:\USERS\BRAD\GOOGLE DRIVE\VISUAL STUDIO 2013\PROJECTS\CS3100ASSIGN8\CS3100ASSIGN8\MAIN.CPP
^C:\USERS\BRAD\GOOGLE DRIVE\VISUAL STUDIO 2013\PROJECTS\CS3100ASSIGN8\CS3100ASSIGN8\PROCESS.CPP
/c /Zi /nologo /W3 /WX- /sdl /O2 /Oi /Oy- /GL /D WIN32 /D NDEBUG /D _CONSOLE /D _LIB /D _UNICODE /D UNICODE /Gm- /EHsc /MD /GS /Gy /fp:precise /Zc:wchar_t /Zc:forScope /Fo"RELEASE\\" /Fd"RELEASE\VC120.PDB" /Gd /TP /analyze- C:\USERS\BRAD\GOOGLE DRIVE\VISUAL STUDIO 2013\PROJECTS\CS3100ASSIGN8\CS3100ASSIGN8\PROCESS.CPP
